{
  "name": "auth",
  "$schema": "../../node_modules/nx/schemas/project-schema.json",
  "projectType": "library",
  "sourceRoot": "libs/auth/src",
  "prefix": "bubaxi",
  "targets": {
    "test": {
      "executor": "@nx/jest:jest",
      "outputs": ["{workspaceRoot}/coverage/libs/auth"],
      "options": {
        "jestConfig": "libs/auth/jest.config.ts"
      }
    },
    "lint": {
      "executor": "@nx/eslint:lint",
      "outputs": ["{options.outputFile}"]
    }
  },
  "tags": []
}
